/****** Object:  View [dbo].[VBranchWithCityAndArea]    Script Date: 21/10/2020 10:49:36 ******/
SET ANSI_NULLS ON
GO
SET QUOTED_IDENTIFIER ON
GO
CREATE VIEW [dbo].[VBranchWithCityAndArea]
AS
SELECT        a.BranchId, a.CompanyId, a.BranchCode, a.BranchName, a.Address, a.BranchTimeZone, b.CityCode, c.CityType, c.CityName, d.BranchAreaId, e.AreaCode, e.AreaName
FROM            dbo.Branch AS a LEFT OUTER JOIN
                         dbo.BranchCity AS b ON b.BranchId = a.BranchId LEFT OUTER JOIN
                         dbo.VCompanyCity AS c ON c.CityCode = b.CityCode LEFT OUTER JOIN
                         dbo.BranchArea AS d ON d.CityCode = c.CityCode LEFT OUTER JOIN
                         dbo.VCompanyArea AS e ON e.AreaCode = d.SubDistrictCode
GO
EXEC sys.sp_addextendedproperty @name=N'MS_DiagramPane1', @value=N'[0E232FF0-B466-11cf-A24F-00AA00A3EFFF, 1.00]
Begin DesignProperties = 
   Begin PaneConfigurations = 
      Begin PaneConfiguration = 0
         NumPanes = 4
         Configuration = "(H (1[40] 4[20] 2[20] 3) )"
      End
      Begin PaneConfiguration = 1
         NumPanes = 3
         Configuration = "(H (1 [50] 4 [25] 3))"
      End
      Begin PaneConfiguration = 2
         NumPanes = 3
         Configuration = "(H (1 [50] 2 [25] 3))"
      End
      Begin PaneConfiguration = 3
         NumPanes = 3
         Configuration = "(H (4 [30] 2 [40] 3))"
      End
      Begin PaneConfiguration = 4
         NumPanes = 2
         Configuration = "(H (1 [56] 3))"
      End
      Begin PaneConfiguration = 5
         NumPanes = 2
         Configuration = "(H (2 [66] 3))"
      End
      Begin PaneConfiguration = 6
         NumPanes = 2
         Configuration = "(H (4 [50] 3))"
      End
      Begin PaneConfiguration = 7
         NumPanes = 1
         Configuration = "(V (3))"
      End
      Begin PaneConfiguration = 8
         NumPanes = 3
         Configuration = "(H (1[56] 4[18] 2) )"
      End
      Begin PaneConfiguration = 9
         NumPanes = 2
         Configuration = "(H (1 [75] 4))"
      End
      Begin PaneConfiguration = 10
         NumPanes = 2
         Configuration = "(H (1[66] 2) )"
      End
      Begin PaneConfiguration = 11
         NumPanes = 2
         Configuration = "(H (4 [60] 2))"
      End
      Begin PaneConfiguration = 12
         NumPanes = 1
         Configuration = "(H (1) )"
      End
      Begin PaneConfiguration = 13
         NumPanes = 1
         Configuration = "(V (4))"
      End
      Begin PaneConfiguration = 14
         NumPanes = 1
         Configuration = "(V (2))"
      End
      ActivePaneConfig = 0
   End
   Begin DiagramPane = 
      Begin Origin = 
         Top = 0
         Left = 0
      End
      Begin Tables = 
         Begin Table = "a"
            Begin Extent = 
               Top = 6
               Left = 38
               Bottom = 136
               Right = 217
            End
            DisplayFlags = 280
            TopColumn = 0
         End
         Begin Table = "b"
            Begin Extent = 
               Top = 6
               Left = 255
               Bottom = 136
               Right = 425
            End
            DisplayFlags = 280
            TopColumn = 0
         End
         Begin Table = "c"
            Begin Extent = 
               Top = 6
               Left = 463
               Bottom = 136
               Right = 647
            End
            DisplayFlags = 280
            TopColumn = 0
         End
         Begin Table = "d"
            Begin Extent = 
               Top = 6
               Left = 685
               Bottom = 136
               Right = 859
            End
            DisplayFlags = 280
            TopColumn = 0
         End
         Begin Table = "e"
            Begin Extent = 
               Top = 6
               Left = 897
               Bottom = 136
               Right = 1084
            End
            DisplayFlags = 280
            TopColumn = 0
         End
      End
   End
   Begin SQLPane = 
   End
   Begin DataPane = 
      Begin ParameterDefaults = ""
      End
   End
   Begin CriteriaPane = 
      Begin ColumnWidths = 11
         Column = 1440
         Alias = 900
         Table = 1170
         Output = 720
         Append = 1400
         NewValue = 1170
         SortType = 1350
         SortOrder = 1410
         GroupBy = 1350
         Filter = 1350
         Or = 1350
         Or = 1350
         Or = 1350
      End
   End
End
' , @level0type=N'SCHEMA',@level0name=N'dbo', @level1type=N'VIEW',@level1name=N'VBranchWithCityAndArea'
GO
EXEC sys.sp_addextendedproperty @name=N'MS_DiagramPaneCount', @value=1 , @level0type=N'SCHEMA',@level0name=N'dbo', @level1type=N'VIEW',@level1name=N'VBranchWithCityAndArea'
GO